{
  "prepare_queue": {
    "installed": [],
    "uninstalled": []
  },
  "config_munge": {
    "files": {}
  },
  "installed_plugins": {
    "cordova-plugin-dialogs": {
      "PACKAGE_NAME": "com.softcompile.tracePath"
    },
    "cordova-plugin-geolocation": {
      "PACKAGE_NAME": "com.softcompile.tracePath"
    },
    "cordova-plugin-statusbar": {
      "PACKAGE_NAME": "com.softcompile.tracePath"
    },
    "cordova-plugin-whitelist": {
      "PACKAGE_NAME": "com.softcompile.tracePath"
    }
  },
  "dependent_plugins": {}
}