-- Merging decision tree log ---
manifest
ADDED from /Users/temp/NetBeansProjects/TracePath/public_html/tracePathCordova/platforms/android/app/src/main/AndroidManifest.xml:2:1-17:12
INJECTED from /Users/temp/NetBeansProjects/TracePath/public_html/tracePathCordova/platforms/android/app/src/main/AndroidManifest.xml:2:1-17:12
INJECTED from /Users/temp/NetBeansProjects/TracePath/public_html/tracePathCordova/platforms/android/app/src/main/AndroidManifest.xml:2:1-17:12
INJECTED from /Users/temp/NetBeansProjects/TracePath/public_html/tracePathCordova/platforms/android/app/src/main/AndroidManifest.xml:2:1-17:12
MERGED from [:CordovaLib] /Users/temp/NetBeansProjects/TracePath/public_html/tracePathCordova/platforms/android/CordovaLib/build/intermediates/manifests/full/debug/AndroidManifest.xml:20:1-27:12
INJECTED from /Users/temp/NetBeansProjects/TracePath/public_html/tracePathCordova/platforms/android/app/src/main/AndroidManifest.xml:2:1-17:12
INJECTED from /Users/temp/NetBeansProjects/TracePath/public_html/tracePathCordova/platforms/android/app/src/main/AndroidManifest.xml:2:1-17:12
INJECTED from /Users/temp/NetBeansProjects/TracePath/public_html/tracePathCordova/platforms/android/app/src/main/AndroidManifest.xml:2:1-17:12
	package
		ADDED from /Users/temp/NetBeansProjects/TracePath/public_html/tracePathCordova/platforms/android/app/src/main/AndroidManifest.xml:2:102-137
		INJECTED from /Users/temp/NetBeansProjects/TracePath/public_html/tracePathCordova/platforms/android/app/src/main/AndroidManifest.xml
		INJECTED from /Users/temp/NetBeansProjects/TracePath/public_html/tracePathCordova/platforms/android/app/src/main/AndroidManifest.xml
	android:versionName
		ADDED from /Users/temp/NetBeansProjects/TracePath/public_html/tracePathCordova/platforms/android/app/src/main/AndroidManifest.xml:2:74-101
		INJECTED from /Users/temp/NetBeansProjects/TracePath/public_html/tracePathCordova/platforms/android/app/src/main/AndroidManifest.xml
		INJECTED from /Users/temp/NetBeansProjects/TracePath/public_html/tracePathCordova/platforms/android/app/src/main/AndroidManifest.xml
	android:hardwareAccelerated
		ADDED from /Users/temp/NetBeansProjects/TracePath/public_html/tracePathCordova/platforms/android/app/src/main/AndroidManifest.xml:2:11-45
	xmlns:android
		ADDED from /Users/temp/NetBeansProjects/TracePath/public_html/tracePathCordova/platforms/android/app/src/main/AndroidManifest.xml:2:138-196
	android:versionCode
		ADDED from /Users/temp/NetBeansProjects/TracePath/public_html/tracePathCordova/platforms/android/app/src/main/AndroidManifest.xml:2:46-73
		INJECTED from /Users/temp/NetBeansProjects/TracePath/public_html/tracePathCordova/platforms/android/app/src/main/AndroidManifest.xml
		INJECTED from /Users/temp/NetBeansProjects/TracePath/public_html/tracePathCordova/platforms/android/app/src/main/AndroidManifest.xml
supports-screens
ADDED from /Users/temp/NetBeansProjects/TracePath/public_html/tracePathCordova/platforms/android/app/src/main/AndroidManifest.xml:3:5-191
	android:largeScreens
		ADDED from /Users/temp/NetBeansProjects/TracePath/public_html/tracePathCordova/platforms/android/app/src/main/AndroidManifest.xml:3:49-76
	android:smallScreens
		ADDED from /Users/temp/NetBeansProjects/TracePath/public_html/tracePathCordova/platforms/android/app/src/main/AndroidManifest.xml:3:132-159
	android:normalScreens
		ADDED from /Users/temp/NetBeansProjects/TracePath/public_html/tracePathCordova/platforms/android/app/src/main/AndroidManifest.xml:3:77-105
	android:xlargeScreens
		ADDED from /Users/temp/NetBeansProjects/TracePath/public_html/tracePathCordova/platforms/android/app/src/main/AndroidManifest.xml:3:160-188
	android:resizeable
		ADDED from /Users/temp/NetBeansProjects/TracePath/public_html/tracePathCordova/platforms/android/app/src/main/AndroidManifest.xml:3:106-131
	android:anyDensity
		ADDED from /Users/temp/NetBeansProjects/TracePath/public_html/tracePathCordova/platforms/android/app/src/main/AndroidManifest.xml:3:23-48
uses-permission#android.permission.INTERNET
ADDED from /Users/temp/NetBeansProjects/TracePath/public_html/tracePathCordova/platforms/android/app/src/main/AndroidManifest.xml:4:5-67
	android:name
		ADDED from /Users/temp/NetBeansProjects/TracePath/public_html/tracePathCordova/platforms/android/app/src/main/AndroidManifest.xml:4:22-64
application
ADDED from /Users/temp/NetBeansProjects/TracePath/public_html/tracePathCordova/platforms/android/app/src/main/AndroidManifest.xml:5:5-12:19
	android:supportsRtl
		ADDED from /Users/temp/NetBeansProjects/TracePath/public_html/tracePathCordova/platforms/android/app/src/main/AndroidManifest.xml:5:114-140
	android:label
		ADDED from /Users/temp/NetBeansProjects/TracePath/public_html/tracePathCordova/platforms/android/app/src/main/AndroidManifest.xml:5:81-113
	android:hardwareAccelerated
		ADDED from /Users/temp/NetBeansProjects/TracePath/public_html/tracePathCordova/platforms/android/app/src/main/AndroidManifest.xml:5:18-52
	android:icon
		ADDED from /Users/temp/NetBeansProjects/TracePath/public_html/tracePathCordova/platforms/android/app/src/main/AndroidManifest.xml:5:53-80
activity#com.softcompile.tracePath.MainActivity
ADDED from /Users/temp/NetBeansProjects/TracePath/public_html/tracePathCordova/platforms/android/app/src/main/AndroidManifest.xml:6:9-11:20
	android:screenOrientation
		ADDED from /Users/temp/NetBeansProjects/TracePath/public_html/tracePathCordova/platforms/android/app/src/main/AndroidManifest.xml:6:194-230
	android:label
		ADDED from /Users/temp/NetBeansProjects/TracePath/public_html/tracePathCordova/platforms/android/app/src/main/AndroidManifest.xml:6:97-134
	android:launchMode
		ADDED from /Users/temp/NetBeansProjects/TracePath/public_html/tracePathCordova/platforms/android/app/src/main/AndroidManifest.xml:6:135-165
	android:windowSoftInputMode
		ADDED from /Users/temp/NetBeansProjects/TracePath/public_html/tracePathCordova/platforms/android/app/src/main/AndroidManifest.xml:6:294-336
	android:configChanges
		ADDED from /Users/temp/NetBeansProjects/TracePath/public_html/tracePathCordova/platforms/android/app/src/main/AndroidManifest.xml:6:19-96
	android:theme
		ADDED from /Users/temp/NetBeansProjects/TracePath/public_html/tracePathCordova/platforms/android/app/src/main/AndroidManifest.xml:6:231-293
	android:name
		ADDED from /Users/temp/NetBeansProjects/TracePath/public_html/tracePathCordova/platforms/android/app/src/main/AndroidManifest.xml:6:166-193
intent-filter#action:name:android.intent.action.MAIN+category:name:android.intent.category.LAUNCHER
ADDED from /Users/temp/NetBeansProjects/TracePath/public_html/tracePathCordova/platforms/android/app/src/main/AndroidManifest.xml:7:13-10:29
	android:label
		ADDED from /Users/temp/NetBeansProjects/TracePath/public_html/tracePathCordova/platforms/android/app/src/main/AndroidManifest.xml:7:28-65
action#android.intent.action.MAIN
ADDED from /Users/temp/NetBeansProjects/TracePath/public_html/tracePathCordova/platforms/android/app/src/main/AndroidManifest.xml:8:17-69
	android:name
		ADDED from /Users/temp/NetBeansProjects/TracePath/public_html/tracePathCordova/platforms/android/app/src/main/AndroidManifest.xml:8:25-66
category#android.intent.category.LAUNCHER
ADDED from /Users/temp/NetBeansProjects/TracePath/public_html/tracePathCordova/platforms/android/app/src/main/AndroidManifest.xml:9:17-77
	android:name
		ADDED from /Users/temp/NetBeansProjects/TracePath/public_html/tracePathCordova/platforms/android/app/src/main/AndroidManifest.xml:9:27-74
uses-sdk
ADDED from /Users/temp/NetBeansProjects/TracePath/public_html/tracePathCordova/platforms/android/app/src/main/AndroidManifest.xml:13:5-74
MERGED from [:CordovaLib] /Users/temp/NetBeansProjects/TracePath/public_html/tracePathCordova/platforms/android/CordovaLib/build/intermediates/manifests/full/debug/AndroidManifest.xml:25:5-44
MERGED from [:CordovaLib] /Users/temp/NetBeansProjects/TracePath/public_html/tracePathCordova/platforms/android/CordovaLib/build/intermediates/manifests/full/debug/AndroidManifest.xml:25:5-44
	android:targetSdkVersion
		ADDED from /Users/temp/NetBeansProjects/TracePath/public_html/tracePathCordova/platforms/android/app/src/main/AndroidManifest.xml:13:42-71
	android:minSdkVersion
		ADDED from /Users/temp/NetBeansProjects/TracePath/public_html/tracePathCordova/platforms/android/app/src/main/AndroidManifest.xml:13:15-41
uses-permission#android.permission.ACCESS_COARSE_LOCATION
ADDED from /Users/temp/NetBeansProjects/TracePath/public_html/tracePathCordova/platforms/android/app/src/main/AndroidManifest.xml:14:5-81
	android:name
		ADDED from /Users/temp/NetBeansProjects/TracePath/public_html/tracePathCordova/platforms/android/app/src/main/AndroidManifest.xml:14:22-78
uses-permission#android.permission.ACCESS_FINE_LOCATION
ADDED from /Users/temp/NetBeansProjects/TracePath/public_html/tracePathCordova/platforms/android/app/src/main/AndroidManifest.xml:15:5-79
	android:name
		ADDED from /Users/temp/NetBeansProjects/TracePath/public_html/tracePathCordova/platforms/android/app/src/main/AndroidManifest.xml:15:22-76
uses-feature#android.hardware.location.gps
ADDED from /Users/temp/NetBeansProjects/TracePath/public_html/tracePathCordova/platforms/android/app/src/main/AndroidManifest.xml:16:5-66
	android:name
		ADDED from /Users/temp/NetBeansProjects/TracePath/public_html/tracePathCordova/platforms/android/app/src/main/AndroidManifest.xml:16:19-63
